-----BEGIN PGP PUBLIC KEY BLOCK-----

mDMEX7+UAhYJKwYBBAHaRw8BAQdAvmHVqtxEIsaQcFYL3adPRAhH4HSw+fEsKseo
qXkkERW0Lkp1bGllIEFubiBTLiBWZWxhc3F1ZXogPGp1bGllQGVuZ2FnZW1lZGlh
Lm9yZz6IlgQTFggAPhYhBNNf5UoBNEhCqkZJ7GioATDbQNtYBQJfv5QCAhsDBQkJ
ZgGABQsJCAcCBhUKCQgLAgQWAgMBAh4BAheAAAoJEGioATDbQNtY48EBALNH/ZIn
T6TGmoU2h9lcJrnnkM37HI18NUz7mPoSMAtdAQDN5+MqO7doAi+mnc0sc2YY8s3s
P2eqQ7BTXp5B617KAbg4BF+/lAISCisGAQQBl1UBBQEBB0ChSJFT6lq1oGHXnqNL
eUaC1A7b/gyfO6XuHdZ0ACCYKgMBCAeIfgQYFggAJhYhBNNf5UoBNEhCqkZJ7Gio
ATDbQNtYBQJfv5QCAhsMBQkJZgGAAAoJEGioATDbQNtYd7kA/2hyRckr58ku9kTa
mMVqCHOH/oGYqyZbSa8XNiepTJgYAP4mY6JZBv/UDbHMCIAL9c5LAIRrbGSkVCfs
5nEAYhaeCg==
=wBda
-----END PGP PUBLIC KEY BLOCK-----
